{
  "kind": "collectionType",
  "collectionName": "posts",
  "info": {
    "name": "Post"
  },
  "options": {
    "increments": true,
    "timestamps": true,
    "draftAndPublish": true
  },
  "pluginOptions": {},
  "attributes": {
    "p_image": {
      "collection": "file",
      "via": "related",
      "allowedTypes": [
        "images",
        "files",
        "videos"
      ],
      "plugin": "upload",
      "required": false,
      "pluginOptions": {}
    },
    "p_caption": {
      "type": "richtext"
    },
    "p_likes": {
      "type": "biginteger"
    },
    "p_author": {
      "plugin": "users-permissions",
      "model": "user",
      "via": "posts"
    },
    "p_comment": {
      "model": "comment",
      "via": "posts"
    },
    "p_url": {
      "type": "string"
    }
  }
}
